<?xml version="1.0" encoding="utf-8"?>
<!-- Generator: Adobe Illustrator 21.1.0, SVG Export Plug-In . SVG Version: 6.00 Build 0)  -->
<svg version="1.1" id="Camada_1" xmlns="http://www.w3.org/2000/svg" xmlns:xlink="http://www.w3.org/1999/xlink" x="0px" y="0px"
	 viewBox="0 0 200 200" style="enable-background:new 0 0 200 200;" xml:space="preserve">
<style type="text/css">
	.st0{fill:none;}
	.st1{fill:#F0813C;}
</style>
<g>
	<g>
		<path class="st0" d="M63.7,83.8c-0.1-1.2-0.2-2.4-0.2-3.5c0-1.3,0.1-2.6,0.2-3.9c-0.4,0-0.7-0.1-1.1-0.1c-1.2,0-2.3,0.2-3.5,0.6
			c-0.5,0.2-1,0.1-1.5-0.1c-0.5-0.2-0.8-0.6-1-1.1c-2.5-8.1-9.9-13.5-18.4-13.5c-10.6,0-19.2,8.6-19.2,19.2c0,0.8,0.1,1.6,0.2,2.6
			c0.1,1-0.5,2-1.6,2.1c-6.9,1.2-11.9,7.2-11.9,14.2c0,8,6.5,14.5,14.5,14.5h20.4c0-0.6-0.1-1.2-0.1-1.7
			C40.6,99.1,50.2,87.1,63.7,83.8z"/>
		<path class="st0" d="M138.2,67.1c2-0.5,3.9-0.8,5.9-0.8c7.3,0,13.8,3.4,18,8.7h19.9c6.7,0,12.1-5.4,12.1-12.1
			c0-4.3-2.4-8.4-6.1-10.5c-0.8-0.5-1.2-1.4-0.9-2.3c0.4-1.1,0.6-2.3,0.6-3.5c0-5.6-4.6-10.2-10.2-10.2c-1.2,0-2.3,0.2-3.5,0.6
			c-0.5,0.2-1,0.1-1.5-0.1c-0.5-0.2-0.8-0.6-1-1.1c-2.5-8.1-9.9-13.5-18.4-13.5c-10.6,0-19.2,8.6-19.2,19.2c0,0.8,0.1,1.6,0.2,2.6
			c0.1,1-0.5,2-1.6,2.1c-2.7,0.5-5.1,1.7-7,3.4C131.1,54.1,135.6,60,138.2,67.1z"/>
		<path class="st0" d="M67.8,85.1c0.1,1-0.5,2-1.6,2.1c-12.6,2.2-21.7,13.2-21.7,26c0,0.6,0,1.2,0.1,1.7h22.7
			c6.7,0,12.1-5.4,12.1-12.1c0-4.3-2.4-8.4-6.1-10.5c-0.8-0.5-1.2-1.4-0.9-2.3c0.4-1.1,0.6-2.3,0.6-3.5c0-3.9-2.2-7.3-5.4-9
			c-0.1,0.9-0.1,1.8-0.1,2.7C67.4,81.8,67.5,83.3,67.8,85.1z"/>
		<path class="st0" d="M137.6,71.3c-0.5,0.2-1,0.1-1.5-0.1c-0.5-0.2-0.8-0.6-1-1.1c-2.2-7.2-6.6-13.2-12.2-17.4
			c-1.5,2.3-2.4,5-2.4,7.9c0,8,6.5,14.5,14.5,14.5h21.8c-3.4-3-7.8-4.9-12.7-4.9C141.9,70.1,139.7,70.5,137.6,71.3z"/>
		<path class="st1" d="M191,49.9c0.3-1.1,0.4-2.2,0.4-3.3c0-7.8-6.3-14.1-14.1-14.1c-1,0-2,0.1-2.9,0.3
			c-3.5-8.7-11.9-14.5-21.4-14.5c-12.7,0-23.1,10.3-23.1,23.1c0,0.5,0,0.9,0.1,1.4c-3,0.9-5.7,2.5-7.9,4.6c1.1,0.7,2.2,1.4,3.2,2.2
			c1.9-1.7,4.3-2.9,7-3.4c1-0.2,1.7-1.1,1.6-2.1c-0.1-1-0.2-1.8-0.2-2.6c0-10.6,8.6-19.2,19.2-19.2c8.5,0,15.8,5.4,18.4,13.5
			c0.2,0.5,0.5,0.9,1,1.1c0.5,0.2,1,0.3,1.5,0.1c1.1-0.4,2.3-0.6,3.5-0.6c5.6,0,10.2,4.6,10.2,10.2c0,1.2-0.2,2.3-0.6,3.5
			c-0.3,0.9,0,1.9,0.9,2.3c3.8,2.1,6.1,6.2,6.1,10.5c0,6.7-5.4,12.1-12.1,12.1H162c0.9,1.2,1.8,2.5,2.5,3.8h17.4
			c8.8,0,15.9-7.1,15.9-15.9C197.8,57.8,195.3,52.9,191,49.9z"/>
		<path class="st1" d="M20.3,114.9c-8,0-14.5-6.5-14.5-14.5c0-7,5-13,11.9-14.2c1-0.2,1.7-1.1,1.6-2.1c-0.1-1-0.2-1.8-0.2-2.6
			c0-10.6,8.6-19.2,19.2-19.2c8.5,0,15.8,5.4,18.4,13.5c0.2,0.5,0.5,0.9,1,1.1c0.5,0.2,1,0.3,1.5,0.1c1.1-0.4,2.3-0.6,3.5-0.6
			c0.4,0,0.8,0,1.1,0.1c0.1-1.3,0.3-2.5,0.6-3.8c-0.6-0.1-1.1-0.1-1.7-0.1c-1,0-2,0.1-2.9,0.3c-3.5-8.7-11.9-14.5-21.4-14.5
			c-12.7,0-23.1,10.3-23.1,23.1c0,0.5,0,0.9,0.1,1.4C7.5,85.1,2,92.2,2,100.5c0,10.1,8.2,18.3,18.3,18.3h20.9
			c-0.2-1.3-0.4-2.5-0.5-3.8H20.3z"/>
		<path class="st1" d="M65.9,85.3c-13.2,2.4-23.3,13.9-23.3,27.9c0,0.6,0,1.2,0.1,1.7h1.9c0-0.6-0.1-1.2-0.1-1.7
			c0-12.8,9.1-23.7,21.7-26c1-0.2,1.7-1.1,1.6-2.1c-0.2-1.8-0.4-3.3-0.4-4.7c0-0.9,0-1.8,0.1-2.7c-0.6-0.3-1.2-0.6-1.9-0.8
			c-0.1,1.2-0.2,2.3-0.2,3.5C65.5,82,65.6,83.7,65.9,85.3z"/>
		<path class="st1" d="M63.6,80.3c0,1.1,0.1,2.2,0.2,3.5c-13.5,3.2-23.1,15.3-23.1,29.4c0,0.6,0,1.2,0.1,1.7h1.9
			c0-0.6-0.1-1.2-0.1-1.7c0-13.9,10.1-25.5,23.3-27.9c-0.2-1.6-0.4-3.3-0.4-5c0-1.2,0.1-2.4,0.2-3.5c-0.6-0.2-1.2-0.3-1.9-0.4
			C63.6,77.7,63.6,79,63.6,80.3z"/>
		<path class="st1" d="M136.9,69.5c2.2-0.8,4.6-1.3,7.1-1.3c6.1,0,11.6,2.6,15.4,6.8h2.5c-4.2-5.3-10.7-8.7-18-8.7
			c-2,0-4,0.3-5.9,0.8c-2.6-7.1-7-13-12.7-17.4c-0.5,0.4-1,0.9-1.4,1.4C130.1,55.7,134.7,62.1,136.9,69.5z"/>
		<path class="st1" d="M144.1,68.2c-2.5,0-4.9,0.5-7.1,1.3c-2.3-7.4-6.9-13.8-12.9-18.4c-0.4,0.5-0.8,1-1.1,1.5
			c5.6,4.3,10,10.3,12.2,17.4c0.2,0.5,0.5,0.9,1,1.1c0.5,0.2,1,0.3,1.5,0.1c2.1-0.8,4.3-1.2,6.5-1.2c4.9,0,9.3,1.9,12.7,4.9h2.7
			C155.7,70.8,150.2,68.2,144.1,68.2z"/>
		<path class="st1" d="M102.1,43.8c6.9,0,13.3,1.9,18.8,5.2c0.4-0.5,0.9-1,1.3-1.5c-5.9-3.6-12.8-5.7-20.1-5.7
			c-18.6,0-34.2,13.3-37.7,30.8c0.6,0.1,1.3,0.2,1.9,0.4C69.6,56.3,84.4,43.8,102.1,43.8z"/>
		<path class="st1" d="M165.1,89.2c0,2.5-0.5,4.9-1.3,7.1c7.3,4.1,12.3,12,12.3,21c0,13.4-10.8,24.2-24.2,24.2h-13h13
			c13.4,0,24.2-10.8,24.2-24.2c0-9-5-16.9-12.3-21C164.6,94.1,165.1,91.7,165.1,89.2c0-3.8-1-7.3-2.8-10.4h-2.2
			c1.9,3,3.1,6.6,3.1,10.4c0,2.2-0.4,4.3-1.1,6.4c-0.3,0.9,0,1.9,0.9,2.3c7,3.9,11.3,11.4,11.3,19.4c0,12.3-10,22.3-22.3,22.3h-13
			c-1.1,0-1.9,0.9-1.9,1.9s0.9,1.9,1.9,1.9h13c14.4,0,26.1-11.7,26.1-26.1c0-8.9-4.5-17.1-11.9-21.9c0.6-2,0.9-4.1,0.9-6.2
			c0-3.7-0.9-7.3-2.5-10.4h-2.2C164.1,81.9,165.1,85.4,165.1,89.2z"/>
		<path class="st1" d="M70.9,141.5h9.3H70.9c-13.7,0-25.2-9.8-27.8-22.7h-1.9c2.6,14,14.9,24.7,29.7,24.7h9.3c1.1,0,1.9-0.9,1.9-1.9
			s-0.9-1.9-1.9-1.9h-9.3c-12.6,0-23.2-8.9-25.8-20.8h-2C45.7,131.7,57.1,141.5,70.9,141.5z"/>
		<path class="st1" d="M102.1,43.8c-17.7,0-32.5,12.6-35.8,29.3c0.6,0.2,1.2,0.4,1.8,0.6c3.1-15.9,17.2-28,34-28
			c6.4,0,12.5,1.7,17.7,4.8c0.3-0.5,0.7-1,1.1-1.5C115.4,45.7,108.9,43.8,102.1,43.8z"/>
		<path class="st1" d="M159.5,75h-2.7c1.3,1.1,2.4,2.4,3.3,3.8h2.2C161.5,77.5,160.6,76.2,159.5,75z"/>
		<path class="st1" d="M159.5,75c1.1,1.2,2,2.4,2.8,3.8h2.2c-0.7-1.4-1.5-2.6-2.5-3.8H159.5z"/>
		<path class="st1" d="M124,51.1c0.4-0.5,0.9-1,1.4-1.4c-1-0.8-2.1-1.5-3.2-2.2c-0.5,0.5-0.9,1-1.3,1.5C122,49.7,123,50.4,124,51.1z
			"/>
		<path class="st1" d="M124,51.1c-1-0.8-2.1-1.5-3.2-2.1c-0.4,0.5-0.8,1-1.1,1.5c1.1,0.7,2.2,1.4,3.2,2.1
			C123.3,52.1,123.6,51.6,124,51.1z"/>
		<path class="st1" d="M42.6,114.9c0.1,1.3,0.2,2.6,0.5,3.8h2c-0.3-1.2-0.4-2.5-0.5-3.8H42.6z"/>
		<path class="st1" d="M65.6,76.8c0.1-1.3,0.3-2.6,0.6-3.8c-0.6-0.2-1.2-0.3-1.9-0.4c-0.3,1.2-0.4,2.5-0.6,3.8
			C64.4,76.5,65,76.6,65.6,76.8z"/>
		<path class="st1" d="M42.6,114.9h-1.9c0.1,1.3,0.2,2.6,0.5,3.8h1.9C42.8,117.5,42.7,116.2,42.6,114.9z"/>
		<path class="st1" d="M65.6,76.8c0.6,0.2,1.3,0.5,1.9,0.8c0.1-1.3,0.3-2.7,0.5-4c-0.6-0.2-1.2-0.4-1.8-0.6
			C66,74.3,65.8,75.5,65.6,76.8z"/>
	</g>
	<g>
		<g>
			<path class="st1" d="M103.1,102.2H91.3c-1.1,0-1.9-0.9-1.9-1.9V88.6c0-1.1,0.9-1.9,1.9-1.9h11.7c1.1,0,1.9,0.9,1.9,1.9v11.7
				C105,101.4,104.1,102.2,103.1,102.2z M93.3,98.4h7.9v-7.9h-7.9V98.4z"/>
		</g>
		<g>
			<path class="st1" d="M128.9,102.2h-11.7c-1.1,0-1.9-0.9-1.9-1.9V88.6c0-1.1,0.9-1.9,1.9-1.9h11.7c1.1,0,1.9,0.9,1.9,1.9v11.7
				C130.9,101.4,130,102.2,128.9,102.2z M119.1,98.4h7.9v-7.9h-7.9V98.4z"/>
		</g>
	</g>
	<g>
		<g>
			<path class="st1" d="M103.1,124.8H91.3c-1.1,0-1.9-0.9-1.9-1.9v-11.7c0-1.1,0.9-1.9,1.9-1.9h11.7c1.1,0,1.9,0.9,1.9,1.9v11.7
				C105,124,104.1,124.8,103.1,124.8z M93.3,121h7.9v-7.9h-7.9V121z"/>
		</g>
		<g>
			<path class="st1" d="M128.9,124.8h-11.7c-1.1,0-1.9-0.9-1.9-1.9v-11.7c0-1.1,0.9-1.9,1.9-1.9h11.7c1.1,0,1.9,0.9,1.9,1.9v11.7
				C130.9,124,130,124.8,128.9,124.8z M119.1,121h7.9v-7.9h-7.9V121z"/>
		</g>
	</g>
	<g>
		<path class="st1" d="M103.1,147.4H91.3c-1.1,0-1.9-0.9-1.9-1.9v-11.7c0-1.1,0.9-1.9,1.9-1.9h11.7c1.1,0,1.9,0.9,1.9,1.9v11.7
			C105,146.6,104.1,147.4,103.1,147.4z M93.3,143.6h7.9v-7.9h-7.9V143.6z"/>
	</g>
	<g>
		<path class="st1" d="M128.9,147.4h-11.7c-1.1,0-1.9-0.9-1.9-1.9v-11.7c0-1.1,0.9-1.9,1.9-1.9h11.7c1.1,0,1.9,0.9,1.9,1.9v11.7
			C130.9,146.6,130,147.4,128.9,147.4z M119.1,143.6h7.9v-7.9h-7.9V143.6z"/>
	</g>
	<g>
		<path class="st1" d="M118.3,178.8H102c-1.1,0-1.9-0.9-1.9-1.9v-20.9c0-1.1,0.9-1.9,1.9-1.9h16.3c1.1,0,1.9,0.9,1.9,1.9v20.9
			C120.2,177.9,119.4,178.8,118.3,178.8z M103.9,174.9h12.5v-17.1h-12.5V174.9z"/>
	</g>
	<g>
		<path class="st1" d="M133.8,178.8H86.5c-3.8,0-6.8-3.1-6.8-6.8V84c0-3.8,3.1-6.8,6.8-6.8h47.3c3.8,0,6.8,3.1,6.8,6.8v87.9
			C140.6,175.7,137.6,178.8,133.8,178.8z M86.5,81c-1.7,0-3,1.3-3,3v87.9c0,1.7,1.3,3,3,3h47.3c1.7,0,3-1.3,3-3V84c0-1.7-1.3-3-3-3
			H86.5z"/>
	</g>
	<g>
		<g>
			<path class="st1" d="M83.8,50.6c-0.2,0-0.3,0-0.5-0.1c0,0-3.5-0.9-8.4-0.9c-1.1,0-1.9-0.9-1.9-1.9c0-1.1,0.9-1.9,1.9-1.9
				c0,0,0,0,0,0c5.4,0,9.2,1,9.3,1.1c1,0.3,1.6,1.3,1.3,2.3C85.4,50,84.6,50.6,83.8,50.6z"/>
		</g>
		<g>
			<path class="st1" d="M47.8,64.5c-0.3,0-0.7-0.1-1-0.3c-0.9-0.5-1.2-1.7-0.7-2.6c0.4-0.7,0.8-1.4,1.3-2.1c1.1-1.8,2.2-3.6,3.5-5.6
				c0.6-0.9,1.8-1.2,2.6-0.6c0.2,0.1,0.3,0.2,0.4,0.4c0.3,0.1,0.5,0.3,0.7,0.5c0.7,0.8,0.7,2-0.1,2.7c-1.4,1.4-2.8,3-3.9,4.7
				c-0.1,0.1-0.1,0.2-0.2,0.3l-1,1.7C49.1,64.2,48.4,64.5,47.8,64.5z"/>
		</g>
		<g>
			<path class="st1" d="M64.1,41.4c-0.5,0-0.9-0.2-1.3-0.5c-0.8-0.7-0.8-1.9-0.1-2.7c4.7-5.1,9.8-9.4,15.2-12.8
				c0.9-0.6,2.1-0.3,2.6,0.6c0.6,0.9,0.3,2.1-0.6,2.6c-5.2,3.2-9.9,7.1-14.4,12.1C65.1,41.2,64.6,41.4,64.1,41.4z M96.7,21.5
				c-0.9,0-1.6-0.6-1.9-1.5c-0.2-1,0.4-2.1,1.4-2.3c6.2-1.5,12.7-2.1,19.7-2c1.1,0,1.9,0.9,1.9,2c0,1.1-0.9,1.9-2,1.9
				c-6.6-0.2-12.9,0.4-18.7,1.8C97,21.5,96.9,21.5,96.7,21.5z"/>
		</g>
		<g>
			<path class="st1" d="M135,25.2c-0.8,0-1.6-0.5-1.8-1.4c-0.2-0.8,0.1-1.7,0.8-2.1c-0.5-0.4-0.8-1.2-0.6-1.9c0.2-1,1.2-1.7,2.3-1.4
				c2.9,0.6,5.8,1.4,8.8,2.3c1,0.3,1.6,1.3,1.3,2.3c-0.2,1-1.2,1.6-2.2,1.4c-2.3-0.4-4.9-0.2-8,0.7C135.4,25.2,135.2,25.2,135,25.2z
				"/>
		</g>
		<g>
			<path class="st1" d="M110.1,46.6c-0.1,0-0.3,0-0.4,0c-1-0.2-1.7-1.2-1.5-2.3c0.5-2.7,2.2-5.6,4.6-8.6c0.7-0.8,1.9-0.9,2.7-0.2
				c0.8,0.7,0.9,1.9,0.2,2.7c-2.1,2.5-3.4,4.9-3.8,6.9C111.8,46,111,46.6,110.1,46.6z"/>
		</g>
	</g>
</g>
<text transform="matrix(1 0 0 1 213.9505 168.1484)" style="font-family:'et-line'; font-size:155.6087px;"></text>
</svg>
